// Jest Snapshot v1, https://goo.gl/fbAQLP

exports[`BoardSettingsSideBar when activeList is present when activeListWipLimit is 0 renders "None" in the block 1`] = `"None"`;

exports[`BoardSettingsSideBar when activeList is present when activeListWipLimit is greater than 0 it renders 1 1`] = `"1"`;

exports[`BoardSettingsSideBar when activeList is present when activeListWipLimit is greater than 0 it renders 11 1`] = `"11"`;
